<svg width="31" height="31" viewBox="0 0 31 31" fill="none" xmlns="http://www.w3.org/2000/svg">
<path d="M11.4864 19.0127C10.0555 19.0127 8.89913 20.1732 8.89913 21.6042C8.89913 23.0309 10.0555 24.1914 11.4864 24.1914C12.9173 24.1914 14.0737 23.0309 14.0737 21.6042C14.0736 20.1732 12.9173 19.0127 11.4864 19.0127ZM11.4864 22.8978C10.7709 22.8978 10.1927 22.3154 10.1927 21.6041C10.1927 20.8887 10.7709 20.3104 11.4864 20.3104C12.2018 20.3104 12.7801 20.8887 12.7801 21.6041C12.78 22.3154 12.2018 22.8978 11.4864 22.8978ZM31 17.0986V19.8613C31 20.5504 30.4413 21.1091 29.7521 21.1091H28.4169C28.1756 19.4536 26.7489 18.1807 25.0268 18.1807C23.3089 18.1807 21.8821 19.4536 21.6408 21.1091H14.8732C14.6319 19.4536 13.2051 18.1807 11.4872 18.1807C9.76931 18.1807 8.34255 19.4536 8.10133 21.1091H6.42916C5.73996 21.1091 5.18131 20.5505 5.18131 19.8613V17.0986H31ZM25.0301 19.0127C23.5992 19.0127 22.4387 20.1732 22.4387 21.6042C22.4387 23.0309 23.5993 24.1914 25.0301 24.1914C26.4568 24.1914 27.6174 23.0309 27.6174 21.6042C27.6174 20.1732 26.4568 19.0127 25.0301 19.0127ZM25.0301 22.8978C24.3146 22.8978 23.7365 22.3154 23.7365 21.6041C23.7365 20.8887 24.3146 20.3104 25.0301 20.3104C25.7414 20.3104 26.3238 20.8887 26.3238 21.6041C26.3238 22.3154 25.7414 22.8978 25.0301 22.8978ZM30.5083 14.3165L25.6042 9.46635C25.2922 9.15852 24.8721 8.98382 24.4353 8.98382H21.9604V8.0562C21.9604 7.36574 21.403 6.80835 20.7125 6.80835H6.4283C5.74194 6.80835 5.18044 7.36579 5.18044 8.0562V8.25172L0.116503 8.83535L9.08959 10.0038L0 10.9068L9.05757 12.1945L0 12.9799L5.18075 13.957L5.18039 16.4088H30.9991V15.4978C30.9991 15.0527 30.8203 14.6284 30.5083 14.3165ZM28.3703 14.4787H23.6242C23.516 14.4787 23.4287 14.3913 23.4287 14.2832V10.6186C23.4287 10.5104 23.516 10.423 23.6242 10.423H24.5268C24.5767 10.423 24.6267 10.4439 24.6641 10.4771L28.5034 14.1418C28.6323 14.2624 28.5449 14.4787 28.3703 14.4787Z" fill="#009867"/>
</svg>
