<svg width="22" height="22" viewBox="0 0 22 22" fill="none" xmlns="http://www.w3.org/2000/svg">
<circle cx="11" cy="11" r="11" fill="#009867"/>
<path d="M7.91992 12.877H6.51953V16H4.76172V7.46875H7.93164C8.93945 7.46875 9.7168 7.69336 10.2637 8.14258C10.8105 8.5918 11.084 9.22656 11.084 10.0469C11.084 10.6289 10.957 11.1152 10.7031 11.5059C10.4531 11.8926 10.0723 12.2012 9.56055 12.4316L11.4062 15.918V16H9.51953L7.91992 12.877ZM6.51953 11.4531H7.9375C8.37891 11.4531 8.7207 11.3418 8.96289 11.1191C9.20508 10.8926 9.32617 10.582 9.32617 10.1875C9.32617 9.78516 9.21094 9.46875 8.98047 9.23828C8.75391 9.00781 8.4043 8.89258 7.93164 8.89258H6.51953V11.4531ZM18.0215 12.8887C18.0215 13.8652 17.7988 14.6484 17.3535 15.2383C16.9121 15.8242 16.3145 16.1172 15.5605 16.1172C14.9199 16.1172 14.4023 15.8945 14.0078 15.4492V18.4375H12.3145V9.66016H13.8848L13.9434 10.2812C14.3535 9.78906 14.8887 9.54297 15.5488 9.54297C16.3301 9.54297 16.9375 9.83203 17.3711 10.4102C17.8047 10.9883 18.0215 11.7852 18.0215 12.8008V12.8887ZM16.3281 12.7656C16.3281 12.1758 16.2227 11.7207 16.0117 11.4004C15.8047 11.0801 15.502 10.9199 15.1035 10.9199C14.5723 10.9199 14.207 11.123 14.0078 11.5293V14.125C14.2148 14.543 14.584 14.752 15.1152 14.752C15.9238 14.752 16.3281 14.0898 16.3281 12.7656Z" fill="white"/>
</svg>
